Library\Bee\artifacts\mvdfrm\Unity.Notifications.Android.ref.dll_0491996ED90CE5DE.mvfrm
Library\Bee\artifacts\mvdfrm\Unity.Notifications.iOS.ref.dll_BE49C1D8ACC4021C.mvfrm
Library\Bee\artifacts\mvdfrm\UnityEditor.TestRunner.ref.dll_1236C9FFD38EBE96.mvfrm
Library\Bee\artifacts\mvdfrm\UnityEditor.UI.ref.dll_DB9C9DC9DBF32258.mvfrm
Library\Bee\artifacts\mvdfrm\UnityEngine.TestRunner.ref.dll_DE5514ADFF521C81.mvfrm
Library\Bee\artifacts\mvdfrm\UnityEngine.UI.ref.dll_98027424E2154AC3.mvfrm
Library\Bee\artifacts\mvdfrm\UnityEditor.Graphs.dll_0093220CDE138013.mvfrm
Library\Bee\artifacts\mvdfrm\UnityEditor.CoreModule.dll_2652C685CC5516E1.mvfrm
Library\Bee\artifacts\mvdfrm\UnityEditor.DeviceSimulatorModule.dll_3AD088F3CBFEB3B0.mvfrm
Library\Bee\artifacts\mvdfrm\UnityEditor.DiagnosticsModule.dll_54D6FDC17ED279FE.mvfrm
Library\Bee\artifacts\mvdfrm\UnityEditor.dll_838C17B50A4E7CE4.mvfrm
Library\Bee\artifacts\mvdfrm\UnityEditor.GraphViewModule.dll_CFFB27458E994A15.mvfrm
Library\Bee\artifacts\mvdfrm\UnityEditor.PackageManagerUIModule.dll_206B6BC4377904FD.mvfrm
Library\Bee\artifacts\mvdfrm\UnityEditor.QuickSearchModule.dll_DFE67ECED7A97657.mvfrm
Library\Bee\artifacts\mvdfrm\UnityEditor.SceneTemplateModule.dll_284D24B2E80DF5B8.mvfrm
Library\Bee\artifacts\mvdfrm\UnityEditor.TextCoreFontEngineModule.dll_4D5D97410AFCD73F.mvfrm
Library\Bee\artifacts\mvdfrm\UnityEditor.TextCoreTextEngineModule.dll_9545CDB29A80905D.mvfrm
Library\Bee\artifacts\mvdfrm\UnityEditor.UIBuilderModule.dll_2483D4620151C349.mvfrm
Library\Bee\artifacts\mvdfrm\UnityEditor.UIElementsModule.dll_B65F5CEB1655347D.mvfrm
Library\Bee\artifacts\mvdfrm\UnityEditor.UIElementsSamplesModule.dll_5DDD4FCD3FD323C0.mvfrm
Library\Bee\artifacts\mvdfrm\UnityEditor.UIServiceModule.dll_5D75E5C4EA891363.mvfrm
Library\Bee\artifacts\mvdfrm\UnityEditor.UnityConnectModule.dll_A3B95695992C3617.mvfrm
Library\Bee\artifacts\mvdfrm\UnityEngine.AccessibilityModule.dll_5AF29049E8841D55.mvfrm
Library\Bee\artifacts\mvdfrm\UnityEngine.AIModule.dll_4C6AB90AA1F95315.mvfrm
Library\Bee\artifacts\mvdfrm\UnityEngine.AndroidJNIModule.dll_34A845BE5F74A353.mvfrm
Library\Bee\artifacts\mvdfrm\UnityEngine.AnimationModule.dll_9E80A36E68F61EBB.mvfrm
Library\Bee\artifacts\mvdfrm\UnityEngine.ARModule.dll_05DD7E0DFF16B1DE.mvfrm
Library\Bee\artifacts\mvdfrm\UnityEngine.AssetBundleModule.dll_23CFB1C03A102B49.mvfrm
Library\Bee\artifacts\mvdfrm\UnityEngine.AudioModule.dll_9FE0718B491CD8ED.mvfrm
Library\Bee\artifacts\mvdfrm\UnityEngine.ClothModule.dll_06C8CE862339B7D1.mvfrm
Library\Bee\artifacts\mvdfrm\UnityEngine.ClusterInputModule.dll_2355CBAB4AB408DD.mvfrm
Library\Bee\artifacts\mvdfrm\UnityEngine.ClusterRendererModule.dll_407D4B653BB9C134.mvfrm
Library\Bee\artifacts\mvdfrm\UnityEngine.CoreModule.dll_497399D8745A820C.mvfrm
Library\Bee\artifacts\mvdfrm\UnityEngine.CrashReportingModule.dll_1E7D5D78AFDCD524.mvfrm
Library\Bee\artifacts\mvdfrm\UnityEngine.DirectorModule.dll_8398A1A73EDEF329.mvfrm
Library\Bee\artifacts\mvdfrm\UnityEngine.dll_B6305E8D68C209C9.mvfrm
Library\Bee\artifacts\mvdfrm\UnityEngine.DSPGraphModule.dll_88EA0310B13FC44A.mvfrm
Library\Bee\artifacts\mvdfrm\UnityEngine.GameCenterModule.dll_5EF58FD925B59444.mvfrm
Library\Bee\artifacts\mvdfrm\UnityEngine.GIModule.dll_E4A702183DA83B2F.mvfrm
Library\Bee\artifacts\mvdfrm\UnityEngine.GridModule.dll_26E4B5C68CAF1803.mvfrm
Library\Bee\artifacts\mvdfrm\UnityEngine.HotReloadModule.dll_1FC9617444293A3D.mvfrm
Library\Bee\artifacts\mvdfrm\UnityEngine.ImageConversionModule.dll_AC6F4915BDDE7928.mvfrm
Library\Bee\artifacts\mvdfrm\UnityEngine.IMGUIModule.dll_D84010F20F4E6CCE.mvfrm
Library\Bee\artifacts\mvdfrm\UnityEngine.InputLegacyModule.dll_B514CCDED201E13A.mvfrm
Library\Bee\artifacts\mvdfrm\UnityEngine.InputModule.dll_0656393BBF54FD91.mvfrm
Library\Bee\artifacts\mvdfrm\UnityEngine.JSONSerializeModule.dll_BB0A1985E7BF7DDF.mvfrm
Library\Bee\artifacts\mvdfrm\UnityEngine.LocalizationModule.dll_61A295FDE22FFBD6.mvfrm
Library\Bee\artifacts\mvdfrm\UnityEngine.NVIDIAModule.dll_9A20E910CF5FAFF8.mvfrm
Library\Bee\artifacts\mvdfrm\UnityEngine.ParticleSystemModule.dll_718FA6C51DEE60B2.mvfrm
Library\Bee\artifacts\mvdfrm\UnityEngine.PerformanceReportingModule.dll_DEDEA0755EDF22CB.mvfrm
Library\Bee\artifacts\mvdfrm\UnityEngine.Physics2DModule.dll_EB26935F09F31650.mvfrm
Library\Bee\artifacts\mvdfrm\UnityEngine.PhysicsModule.dll_AA40DC48BA65935E.mvfrm
Library\Bee\artifacts\mvdfrm\UnityEngine.ProfilerModule.dll_B5DEDADDD8387A36.mvfrm
Library\Bee\artifacts\mvdfrm\UnityEngine.RuntimeInitializeOnLoadManagerInitializerModule.dll_F71E5B8FB9AD2719.mvfrm
Library\Bee\artifacts\mvdfrm\UnityEngine.ScreenCaptureModule.dll_D4F1C70AFC2BAA41.mvfrm
Library\Bee\artifacts\mvdfrm\UnityEngine.SharedInternalsModule.dll_308087EB350C7478.mvfrm
Library\Bee\artifacts\mvdfrm\UnityEngine.SpriteMaskModule.dll_48220269472529BE.mvfrm
Library\Bee\artifacts\mvdfrm\UnityEngine.SpriteShapeModule.dll_3D30DF1AEFB26353.mvfrm
Library\Bee\artifacts\mvdfrm\UnityEngine.StreamingModule.dll_531590BEB87DD5F9.mvfrm
Library\Bee\artifacts\mvdfrm\UnityEngine.SubstanceModule.dll_2FC0A50803D0D407.mvfrm
Library\Bee\artifacts\mvdfrm\UnityEngine.SubsystemsModule.dll_B2CF68CB156D11D1.mvfrm
Library\Bee\artifacts\mvdfrm\UnityEngine.TerrainModule.dll_C48757B79023DC4C.mvfrm
Library\Bee\artifacts\mvdfrm\UnityEngine.TerrainPhysicsModule.dll_720A4F9837315B3F.mvfrm
Library\Bee\artifacts\mvdfrm\UnityEngine.TextCoreFontEngineModule.dll_CBBD12941DFA960A.mvfrm
Library\Bee\artifacts\mvdfrm\UnityEngine.TextCoreTextEngineModule.dll_13A54905AD7E4F28.mvfrm
Library\Bee\artifacts\mvdfrm\UnityEngine.TextRenderingModule.dll_FE313915B3632A36.mvfrm
Library\Bee\artifacts\mvdfrm\UnityEngine.TilemapModule.dll_6383BF38A7E0BD55.mvfrm
Library\Bee\artifacts\mvdfrm\UnityEngine.TLSModule.dll_7CE447D0AB36DCB2.mvfrm
Library\Bee\artifacts\mvdfrm\UnityEngine.UIElementsModule.dll_B70DCA3318994DC8.mvfrm
Library\Bee\artifacts\mvdfrm\UnityEngine.UIElementsNativeModule.dll_6AE52059A8F1751F.mvfrm
Library\Bee\artifacts\mvdfrm\UnityEngine.UIModule.dll_47DE5737FE4058C1.mvfrm
Library\Bee\artifacts\mvdfrm\UnityEngine.UmbraModule.dll_1AB51DA3D6438460.mvfrm
Library\Bee\artifacts\mvdfrm\UnityEngine.UNETModule.dll_DC19E1C1C1697785.mvfrm
Library\Bee\artifacts\mvdfrm\UnityEngine.UnityAnalyticsModule.dll_912F178ECA15B2AE.mvfrm
Library\Bee\artifacts\mvdfrm\UnityEngine.UnityConnectModule.dll_9118DAA493B436C2.mvfrm
Library\Bee\artifacts\mvdfrm\UnityEngine.UnityCurlModule.dll_D19D449FD90A10A8.mvfrm
Library\Bee\artifacts\mvdfrm\UnityEngine.UnityTestProtocolModule.dll_19A005BF99CE7916.mvfrm
Library\Bee\artifacts\mvdfrm\UnityEngine.UnityWebRequestAssetBundleModule.dll_6CF53E817EAD27FF.mvfrm
Library\Bee\artifacts\mvdfrm\UnityEngine.UnityWebRequestAudioModule.dll_56DAF453E549ED63.mvfrm
Library\Bee\artifacts\mvdfrm\UnityEngine.UnityWebRequestModule.dll_BE0E50BFC8D313A7.mvfrm
Library\Bee\artifacts\mvdfrm\UnityEngine.UnityWebRequestTextureModule.dll_F30511A7E8565D98.mvfrm
Library\Bee\artifacts\mvdfrm\UnityEngine.UnityWebRequestWWWModule.dll_DE678E619D3E0B94.mvfrm
Library\Bee\artifacts\mvdfrm\UnityEngine.VehiclesModule.dll_FB5B9B26B908C2C4.mvfrm
Library\Bee\artifacts\mvdfrm\UnityEngine.VFXModule.dll_FDC2E03F81A4461F.mvfrm
Library\Bee\artifacts\mvdfrm\UnityEngine.VideoModule.dll_C4E9F5F60BAEF492.mvfrm
Library\Bee\artifacts\mvdfrm\UnityEngine.VirtualTexturingModule.dll_8F71D4C8819FF5AA.mvfrm
Library\Bee\artifacts\mvdfrm\UnityEngine.VRModule.dll_9AB07DBD9FFADE39.mvfrm
Library\Bee\artifacts\mvdfrm\UnityEngine.WindModule.dll_BFC2750105910075.mvfrm
Library\Bee\artifacts\mvdfrm\UnityEngine.XRModule.dll_CD6F40C229352B97.mvfrm
Library\Bee\artifacts\mvdfrm\Unity.Android.Gradle.dll_3916946DA217D149.mvfrm
Library\Bee\artifacts\mvdfrm\Unity.Android.Types.dll_4E8A8A3C29E58F03.mvfrm
Library\Bee\artifacts\mvdfrm\UnityEditor.Android.Extensions.dll_1D790437E402A529.mvfrm
Library\Bee\artifacts\mvdfrm\UnityEditor.iOS.Extensions.Common.dll_F0CBFDE371262F86.mvfrm
Library\Bee\artifacts\mvdfrm\UnityEditor.iOS.Extensions.dll_2C8825346C181ABF.mvfrm
Library\Bee\artifacts\mvdfrm\UnityEditor.iOS.Extensions.Xcode.dll_48485D385B74F926.mvfrm
Library\Bee\artifacts\mvdfrm\UnityEditor.UWP.Extensions.dll_F113B8228559FB1A.mvfrm
Library\Bee\artifacts\mvdfrm\UnityEditor.WindowsStandalone.Extensions.dll_DB1A395B3A8A21CF.mvfrm
Library\Bee\artifacts\mvdfrm\Unity.Plastic.Antlr3.Runtime.dll_6B006C1448132494.mvfrm
Library\Bee\artifacts\mvdfrm\Unity.Plastic.Newtonsoft.Json.dll_DE5E1C9F8D347561.mvfrm
Library\Bee\artifacts\mvdfrm\Unity.VisualScripting.IonicZip.dll_AC68B71D871945EA.mvfrm
Library\Bee\artifacts\mvdfrm\Unity.VisualScripting.YamlDotNet.dll_8BD88D1DB58E99B2.mvfrm
Library\Bee\artifacts\mvdfrm\Unity.VisualScripting.Antlr3.Runtime.dll_3D45B3FEE657A9D1.mvfrm